modelutils.tools package
========================

Submodules
----------

modelutils.tools.tz\_datetime module
------------------------------------

.. automodule:: modelutils.tools.tz_datetime
    :members:
    :undoc-members:
    :show-inheritance:


Module contents
---------------

.. automodule:: modelutils.tools
    :members:
    :undoc-members:
    :show-inheritance:
