panbas.pan\_listing\_actions package
====================================

Submodules
----------

panbas.pan\_listing\_actions.material\_actions module
-----------------------------------------------------

.. automodule:: panbas.pan_listing_actions.material_actions
    :members:
    :undoc-members:
    :show-inheritance:


Module contents
---------------

.. automodule:: panbas.pan_listing_actions
    :members:
    :undoc-members:
    :show-inheritance:
