panclb.migrations package
=========================

Submodules
----------

panclb.migrations.0001\_initial module
--------------------------------------

.. automodule:: panclb.migrations.0001_initial
    :members:
    :undoc-members:
    :show-inheritance:


Module contents
---------------

.. automodule:: panclb.migrations
    :members:
    :undoc-members:
    :show-inheritance:
