panda package
=============

Subpackages
-----------

.. toctree::

    panda.error_messages
    panda.listing
    panda.management
    panda.templatetags
    panda.wizard

Submodules
----------

panda.action\_helpers module
----------------------------

.. automodule:: panda.action_helpers
    :members:
    :undoc-members:
    :show-inheritance:

panda.application\_helpers module
---------------------------------

.. automodule:: panda.application_helpers
    :members:
    :undoc-members:
    :show-inheritance:

panda.apps module
-----------------

.. automodule:: panda.apps
    :members:
    :undoc-members:
    :show-inheritance:

panda.custom\_filters module
----------------------------

.. automodule:: panda.custom_filters
    :members:
    :undoc-members:
    :show-inheritance:

panda.decorators module
-----------------------

.. automodule:: panda.decorators
    :members:
    :undoc-members:
    :show-inheritance:

panda.default\_kwargs module
----------------------------

.. automodule:: panda.default_kwargs
    :members:
    :undoc-members:
    :show-inheritance:

panda.defaults module
---------------------

.. automodule:: panda.defaults
    :members:
    :undoc-members:
    :show-inheritance:

panda.exceptions module
-----------------------

.. automodule:: panda.exceptions
    :members:
    :undoc-members:
    :show-inheritance:

panda.extra\_views module
-------------------------

.. automodule:: panda.extra_views
    :members:
    :undoc-members:
    :show-inheritance:

panda.global\_choices module
----------------------------

.. automodule:: panda.global_choices
    :members:
    :undoc-members:
    :show-inheritance:

panda.global\_variables module
------------------------------

.. automodule:: panda.global_variables
    :members:
    :undoc-members:
    :show-inheritance:

panda.helper module
-------------------

.. automodule:: panda.helper
    :members:
    :undoc-members:
    :show-inheritance:

panda.helper\_classes module
----------------------------

.. automodule:: panda.helper_classes
    :members:
    :undoc-members:
    :show-inheritance:

panda.helper\_funtions module
-----------------------------

.. automodule:: panda.helper_funtions
    :members:
    :undoc-members:
    :show-inheritance:

panda.helper\_listing module
----------------------------

.. automodule:: panda.helper_listing
    :members:
    :undoc-members:
    :show-inheritance:

panda.middleware module
-----------------------

.. automodule:: panda.middleware
    :members:
    :undoc-members:
    :show-inheritance:

panda.num2words\_text module
----------------------------

.. automodule:: panda.num2words_text
    :members:
    :undoc-members:
    :show-inheritance:

panda.printing\_template\_defaults module
-----------------------------------------

.. automodule:: panda.printing_template_defaults
    :members:
    :undoc-members:
    :show-inheritance:

panda.serialize module
----------------------

.. automodule:: panda.serialize
    :members:
    :undoc-members:
    :show-inheritance:

panda.settings module
---------------------

.. automodule:: panda.settings
    :members:
    :undoc-members:
    :show-inheritance:

panda.settings\_base module
---------------------------

.. automodule:: panda.settings_base
    :members:
    :undoc-members:
    :show-inheritance:

panda.settings\_local module
----------------------------

.. automodule:: panda.settings_local
    :members:
    :undoc-members:
    :show-inheritance:

panda.signals module
--------------------

.. automodule:: panda.signals
    :members:
    :undoc-members:
    :show-inheritance:

panda.submit\_buttons module
----------------------------

.. automodule:: panda.submit_buttons
    :members:
    :undoc-members:
    :show-inheritance:

panda.urls module
-----------------

.. automodule:: panda.urls
    :members:
    :undoc-members:
    :show-inheritance:

panda.utils module
------------------

.. automodule:: panda.utils
    :members:
    :undoc-members:
    :show-inheritance:

panda.views module
------------------

.. automodule:: panda.views
    :members:
    :undoc-members:
    :show-inheritance:

panda.wizard module
-------------------

.. automodule:: panda.wizard
    :members:
    :undoc-members:
    :show-inheritance:

panda.wsgi module
-----------------

.. automodule:: panda.wsgi
    :members:
    :undoc-members:
    :show-inheritance:


Module contents
---------------

.. automodule:: panda
    :members:
    :undoc-members:
    :show-inheritance:
