paninv.models package
=====================

Submodules
----------

paninv.models.adj\_models module
--------------------------------

.. automodule:: paninv.models.adj_models
    :members:
    :undoc-members:
    :show-inheritance:

paninv.models.entry\_models module
----------------------------------

.. automodule:: paninv.models.entry_models
    :members:
    :undoc-members:
    :show-inheritance:

paninv.models.issue\_models module
----------------------------------

.. automodule:: paninv.models.issue_models
    :members:
    :undoc-members:
    :show-inheritance:

paninv.models.item\_models module
---------------------------------

.. automodule:: paninv.models.item_models
    :members:
    :undoc-members:
    :show-inheritance:

paninv.models.managers module
-----------------------------

.. automodule:: paninv.models.managers
    :members:
    :undoc-members:
    :show-inheritance:

paninv.models.model\_choices module
-----------------------------------

.. automodule:: paninv.models.model_choices
    :members:
    :undoc-members:
    :show-inheritance:

paninv.models.pur\_models module
--------------------------------

.. automodule:: paninv.models.pur_models
    :members:
    :undoc-members:
    :show-inheritance:

paninv.models.stock\_models module
----------------------------------

.. automodule:: paninv.models.stock_models
    :members:
    :undoc-members:
    :show-inheritance:

paninv.models.transfer\_models module
-------------------------------------

.. automodule:: paninv.models.transfer_models
    :members:
    :undoc-members:
    :show-inheritance:


Module contents
---------------

.. automodule:: paninv.models
    :members:
    :undoc-members:
    :show-inheritance:
