paninv package
==============

Subpackages
-----------

.. toctree::

    paninv.error_messages
    paninv.migrations
    paninv.models
    paninv.pan_listing_actions
    paninv.services

Submodules
----------

paninv.admin module
-------------------

.. automodule:: paninv.admin
    :members:
    :undoc-members:
    :show-inheritance:

paninv.api module
-----------------

.. automodule:: paninv.api
    :members:
    :undoc-members:
    :show-inheritance:

paninv.apps module
------------------

.. automodule:: paninv.apps
    :members:
    :undoc-members:
    :show-inheritance:

paninv.error\_message module
----------------------------

.. automodule:: paninv.error_message
    :members:
    :undoc-members:
    :show-inheritance:

paninv.service module
---------------------

.. automodule:: paninv.service
    :members:
    :undoc-members:
    :show-inheritance:

paninv.signals module
---------------------

.. automodule:: paninv.signals
    :members:
    :undoc-members:
    :show-inheritance:

paninv.tests module
-------------------

.. automodule:: paninv.tests
    :members:
    :undoc-members:
    :show-inheritance:

paninv.views module
-------------------

.. automodule:: paninv.views
    :members:
    :undoc-members:
    :show-inheritance:


Module contents
---------------

.. automodule:: paninv
    :members:
    :undoc-members:
    :show-inheritance:
