panpur.services package
=======================

Submodules
----------

panpur.services.order\_services module
--------------------------------------

.. automodule:: panpur.services.order_services
    :members:
    :undoc-members:
    :show-inheritance:

panpur.services.quote\_request\_services module
-----------------------------------------------

.. automodule:: panpur.services.quote_request_services
    :members:
    :undoc-members:
    :show-inheritance:

panpur.services.req\_services module
------------------------------------

.. automodule:: panpur.services.req_services
    :members:
    :undoc-members:
    :show-inheritance:


Module contents
---------------

.. automodule:: panpur.services
    :members:
    :undoc-members:
    :show-inheritance:
