panpur.pan\_listing\_actions package
====================================

Submodules
----------

panpur.pan\_listing\_actions.actions module
-------------------------------------------

.. automodule:: panpur.pan_listing_actions.actions
    :members:
    :undoc-members:
    :show-inheritance:


Module contents
---------------

.. automodule:: panpur.pan_listing_actions
    :members:
    :undoc-members:
    :show-inheritance:
