pansys.views package
====================

Submodules
----------

pansys.views.dashboard\_views module
------------------------------------

.. automodule:: pansys.views.dashboard_views
    :members:
    :undoc-members:
    :show-inheritance:

pansys.views.module\_views module
---------------------------------

.. automodule:: pansys.views.module_views
    :members:
    :undoc-members:
    :show-inheritance:

pansys.views.update\_views module
---------------------------------

.. automodule:: pansys.views.update_views
    :members:
    :undoc-members:
    :show-inheritance:

pansys.views.views module
-------------------------

.. automodule:: pansys.views.views
    :members:
    :undoc-members:
    :show-inheritance:


Module contents
---------------

.. automodule:: pansys.views
    :members:
    :undoc-members:
    :show-inheritance:
